MELODI_Tasks/Task2/signals.vcd
$date
	Tue Jan  2 21:35:25 2024
$end
$version
	QuestaSim Version 10.7c
$end
$timescale
	1ns
$end

$scope module stepper_motor_tb $end
$var wire 32 ! desired_duty_cycle_clk $end
$var wire 32 " desired_period_clk $end
$var wire 32 # desired_rotation_frequency $end
$var wire 32 $ desired_dir $end
$var wire 1 % CLK_UUT $end
$var wire 1 & O_UUT [3] $end
$var wire 1 ' O_UUT [2] $end
$var wire 1 ( O_UUT [1] $end
$var wire 1 ) O_UUT [0] $end
$var wire 32 * integral $end
$var wire 32 + count $end
$upscope $end
$enddefinitions $end
#0
$dumpvars
1%
0&
1'
0(
1)
b1001110001000 !
b110000110101000 "
b11110100001001000000 #
b1 $
b0 *
b0 +
$end
#4
0%
#8
1%
b1 +
b1 *
#12
0%
#16
1%
b10 +
b10 *
#20
0%
#24
1%
b11 +
b11 *
#28
0%
#32
1%
b100 +
b100 *
#36
0%
#40
1%
b101 +
b101 *
#44
0%
#48
1%
b110 +
b110 *
#52
0%
#56
1%
b111 +
b111 *
#60
0%
#64
1%
b1000 +
b1000 *
#68
0%
#72
1%
b1001 +
b1001 *
#76
0%
#80
1%
b1010 +
b1010 *
#84
0%
#88
1%
b1011 +
b1011 *
#92
0%
#96
1%
b1100 +
b1100 *
#100
0%
#104
1%
b1101 +
b1101 *
#108
0%
#112
1%
b1110 +
b1110 *
#116
0%
#120
1%
b1111 +
b1111 *
#124
0%
#128
1%
b10000 +
b10000 *
#132
0%
#136
1%
b10001 +
b10001 *
#140
0%
#144
1%
b10010 +
b10010 *
#148
0%
#152
1%
b10011 +
b10011 *
#156
0%
#160
1%
b10100 +
b10100 *
#164
0%
#168
1%
b10101 +
b10101 *
#172
0%
#176
1%
b10110 +
b10110 *
#180
0%
#184
1%
b10111 +
b10111 *
#188
0%
#192
1%
b11000 +
b11000 *
#196
0%
#200
1%
b11001 +
b11001 *
#204
0%
#208
1%
b11010 +
b11010 *
#212
0%
#216
1%
b11011 +
b11011 *
#220
0%
#224
1%
b11100 +
b11100 *
#228
0%
#232
1%
b11101 +
b11101 *
#236
0%
#240
1%
b11110 +
b11110 *
#244
0%
#248
1%
b11111 +
b11111 *
#252
0%
#256
1%
b100000 +
b100000 *
#260
0%
#264
1%
b100001 +
b100001 *
#268
0%
#272
1%
b100010 +
b100010 *
#276
0%
#280
1%
b100011 +
b100011 *
#284
0%
#288
1%
b100100 +
b100100 *
#292
0%
#296
1%
b100101 +
b100101 *
#300
0%
#304
1%
b100110 +
b100110 *
#308
0%
#312
1%
b100111 +
b100111 *
#316
0%
#320
1%
b101000 +
b101000 *
#324
0%
#328
1%
b101001 +
b101001 *
#332
0%
#336
1%
b101010 +
b101010 *
#340
0%
#344
1%
b101011 +
b101011 *
#348
0%
#352
1%
b101100 +
b101100 *
#356
0%
#360
1%
b101101 +
b101101 *
#364
0%
#368
1%
b101110 +
b101110 *
#372
0%
#376
1%
b101111 +
b101111 *
#380
0%
#384
1%
b110000 +
b110000 *
#388
0%
#392
1%
b110001 +
b110001 *
#396
0%
#400
1%
b110010 +
b110010 *
#404
0%
#408
1%
b110011 +
b110011 *
#412
0%
#416
1%
b110100 +
b110100 *
#420
0%
#424
1%
b110101 +
b110101 *
#428
0%
#432
1%
b110110 +
b110110 *
#436
0%
#440
1%
b110111 +
b110111 *
#444
0%
#448
1%
b111000 +
b111000 *
#452
0%
#456
1%
b111001 +
b111001 *
#460
0%
#464
1%
b111010 +
b111010 *
#468
0%
#472
1%
b111011 +
b111011 *
#476
0%
#480
1%
b111100 +
b111100 *
#484
0%
#488
1%
b111101 +
b111101 *
#492
0%
#496
1%
b111110 +
b111110 *
#500
0%
#504
1%
b111111 +
b111111 *
#508
0%
#512
1%
b1000000 +
b1000000 *
#516
0%
#520
1%
b1000001 +
b1000001 *
#524
0%
#528
1%
b1000010 +
b1000010 *
#532
0%
#536
1%
b1000011 +
b1000011 *
#540
0%
#544
1%
b1000100 +
b1000100 *
#548
0%
#552
1%
b1000101 +
b1000101 *
#556
0%
#560
1%
b1000110 +
b1000110 *
#564
0%
#568
1%
b1000111 +
b1000111 *
#572
0%
#576
1%
b1001000 +
b1001000 *
#580
0%
#584
1%
b1001001 +
b1001001 *
#588
0%
#592
1%
b1001010 +
b1001010 *
#596
0%
#600
1%
b1001011 +
b1001011 *
#604
0%
#608
1%
b1001100 +
b1001100 *
#612
0%
#616
1%
b1001101 +
b1001101 *
#620
0%
#624
1%
b1001110 +
b1001110 *
#628
0%
#632
1%
b1001111 +
b1001111 *
#636
0%
#640
1%
b1010000 +
b1010000 *
#644
0%
#648
1%
b1010001 +
b1010001 *
#652
0%
#656
1%
b1010010 +
b1010010 *
#660
0%
#664
1%
b1010011 +
b1010011 *
#668
0%
#672
1%
b1010100 +
b1010100 *
#676
0%
#680
1%
b1010101 +
b1010101 *
#684
0%
#688
1%
b1010110 +
b1010110 *
#692
0%
#696
1%
b1010111 +
b1010111 *
#700
0%
#704
1%
b1011000 +
b1011000 *
#708
0%
#712
1%
b1011001 +
b1011001 *
#716
0%
#720
1%
b1011010 +
b1011010 *
#724
0%
#728
1%
b1011011 +
b1011011 *
#732
0%
#736
1%
b1011100 +
b1011100 *
#740
0%
#744
1%
b1011101 +
b1011101 *
#748
0%
#752
1%
b1011110 +
b1011110 *
#756
0%
#760
1%
b1011111 +
b1011111 *
#764
0%
#768
1%
b1100000 +
b1100000 *
#772
0%
#776
1%
b1100001 +
b1100001 *
#780
0%
#784
1%
b1100010 +
b1100010 *
#788
0%
#792
1%
b1100011 +
b1100011 *
#796
0%
#800
1%
b1100100 +
b1100100 *
#804
0%
#808
1%
b1100101 +
b1100101 *
#812
0%
#816
1%
b1100110 +
b1100110 *
#820
0%
#824
1%
b1100111 +
b1100111 *
#828
0%
#832
1%
b1101000 +
b1101000 *
#836
0%
#840
1%
b1101001 +
b1101001 *
#844
0%
#848
1%
b1101010 +
b1101010 *
#852
0%
#856
1%
b1101011 +
b1101011 *
#860
0%
#864
1%
b1101100 +
b1101100 *
#868
0%
#872
1%
b1101101 +
b1101101 *
#876
0%
#880
1%
b1101110 +
b1101110 *
#884
0%
#888
1%
b1101111 +
b1101111 *
#892
0%
#896
1%
b1110000 +
b1110000 *
#900
0%
#904
1%
b1110001 +
b1110001 *
#908
0%
#912
1%
b1110010 +
b1110010 *
#916
0%
#920
1%
b1110011 +
b1110011 *
#924
0%
#928
1%
b1110100 +
b1110100 *
#932
0%
#936
1%
b1110101 +
b1110101 *
#940
0%
#944
1%
b1110110 +
b1110110 *
#948
0%
#952
1%
b1110111 +
b1110111 *
#956
0%
#960
1%
b1111000 +
b1111000 *
#964
0%
#968
1%
b1111001 +
b1111001 *
#972
0%
#976
1%
b1111010 +
b1111010 *
#980
0%
#984
1%
b1111011 +
b1111011 *
#988
0%
#992
1%
b1111100 +
b1111100 *
#996
0%
#1000
1%
b1111101 +
b1111101 *
#1004
0%
#1008
1%
b1111110 +
b1111110 *
#1012
0%
#1016
1%
b1111111 +
b1111111 *
#1020
0%
#1024
1%
b10000000 +
b10000000 *
#1028
0%
#1032
1%
b10000001 +
b10000001 *
#1036
0%
#1040
1%
b10000010 +
b10000010 *
#1044
0%
#1048
1%
b10000011 +
b10000011 *
#1052
0%
#1056
1%
b10000100 +
b10000100 *
#1060
0%
#1064
1%
b10000101 +
b10000101 *
#1068
0%
#1072
1%
b10000110 +
b10000110 *
#1076
0%
#1080
1%
b10000111 +
b10000111 *
#1084
0%
#1088
1%
b10001000 +
b10001000 *
#1092
0%
#1096
1%
b10001001 +
b10001001 *
#1100
0%
#1104
1%
b10001010 +
b10001010 *
#1108
0%
#1112
1%
b10001011 +
b10001011 *
#1116
0%
#1120
1%
b10001100 +
b10001100 *
#1124
0%
#1128
1%
b10001101 +
b10001101 *
#1132
0%
#1136
1%
b10001110 +
b10001110 *
#1140
0%
#1144
1%
b10001111 +
b10001111 *
#1148
0%
#1152
1%
b10010000 +
b10010000 *
#1156
0%
#1160
1%
b10010001 +
b10010001 *
#1164
0%
#1168
1%
b10010010 +
b10010010 *
#1172
0%
#1176
1%
b10010011 +
b10010011 *
#1180
0%
#1184
1%
b10010100 +
b10010100 *
#1188
0%
#1192
1%
b10010101 +
b10010101 *
#1196
0%
#1200
1%
b10010110 +
b10010110 *
#1204
0%
#1208
1%
b10010111 +
b10010111 *
#1212
0%
#1216
1%
b10011000 +
b10011000 *
#1220
0%
#1224
1%
b10011001 +
b10011001 *
#1228
0%
#1232
1%
b10011010 +
b10011010 *
#1236
0%
#1240
1%
b10011011 +
b10011011 *
#1244
0%
#1248
1%
b10011100 +
b10011100 *
#1252
0%
#1256
1%
b10011101 +
b10011101 *
#1260
0%
#1264
1%
b10011110 +
b10011110 *
#1268
0%
#1272
1%
b10011111 +
b10011111 *
#1276
0%
#1280
1%
b10100000 +
b10100000 *
#1284
0%
#1288
1%
b10100001 +
b10100001 *
#1292
0%
#1296
1%
b10100010 +
b10100010 *
#1300
0%
#1304
1%
b10100011 +
b10100011 *
#1308
0%
#1312
1%
b10100100 +
b10100100 *
#1316
0%
#1320
1%
b10100101 +
b10100101 *
#1324
0%
#1328
1%
b10100110 +
b10100110 *
#1332
0%
#1336
1%
b10100111 +
b10100111 *
#1340
0%
#1344
1%
b10101000 +
b10101000 *
#1348
0%
#1352
1%
b10101001 +
b10101001 *
#1356
0%
#1360
1%
b10101010 +
b10101010 *
#1364
0%
#1368
1%
b10101011 +
b10101011 *
#1372
0%
#1376
1%
b10101100 +
b10101100 *
#1380
0%
#1384
1%
b10101101 +
b10101101 *
#1388
0%
#1392
1%
b10101110 +
b10101110 *
#1396
0%
#1400
1%
b10101111 +
b10101111 *
#1404
0%
#1408
1%
b10110000 +
b10110000 *
#1412
0%
#1416
1%
b10110001 +
b10110001 *
#1420
0%
#1424
1%
b10110010 +
b10110010 *
#1428
0%
#1432
1%
b10110011 +
b10110011 *
#1436
0%
#1440
1%
b10110100 +
b10110100 *
#1444
0%
#1448
1%
b10110101 +
b10110101 *
#1452
0%
#1456
1%
b10110110 +
b10110110 *
#1460
0%
#1464
1%
b10110111 +
b10110111 *
#1468
0%
#1472
1%
b10111000 +
b10111000 *
#1476
0%
#1480
1%
b10111001 +
b10111001 *
#1484
0%
#1488
1%
b10111010 +
b10111010 *
#1492
0%
#1496
1%
b10111011 +
b10111011 *
#1500
0%
#1504
1%
b10111100 +
b10111100 *
#1508
0%
#1512
1%
b10111101 +
b10111101 *
#1516
0%
#1520
1%
b10111110 +
b10111110 *
#1524
0%
#1528
1%
b10111111 +
b10111111 *
#1532
0%
#1536
1%
b11000000 +
b11000000 *
#1540
0%
#1544
1%
b11000001 +
b11000001 *
#1548
0%
#1552
1%
b11000010 +
b11000010 *
#1556
0%
#1560
1%
b11000011 +
b11000011 *
#1564
0%
#1568
1%
b11000100 +
b11000100 *
#1572
0%
#1576
1%
b11000101 +
b11000101 *
#1580
0%
#1584
1%
b11000110 +
b11000110 *
#1588
0%
#1592
1%
b11000111 +
b11000111 *
#1596
0%
#1600
1%
b11001000 +
b11001000 *
#1604
0%
#1608
1%
b11001001 +
b11001001 *
#1612
0%
#1616
1%
b11001010 +
b11001010 *
#1620
0%
#1624
1%
b11001011 +
b11001011 *
#1628
0%
#1632
1%
b11001100 +
b11001100 *
#1636
0%
#1640
1%
b11001101 +
b11001101 *
#1644
0%
#1648
1%
b11001110 +
b11001110 *
#1652
0%
#1656
1%
b11001111 +
b11001111 *
#1660
0%
#1664
1%
b11010000 +
b11010000 *
#1668
0%
#1672
1%
b11010001 +
b11010001 *
#1676
0%
#1680
1%
b11010010 +
b11010010 *
#1684
0%
#1688
1%
b11010011 +
b11010011 *
#1692
0%
#1696
1%
b11010100 +
b11010100 *
#1700
0%
#1704
1%
b11010101 +
b11010101 *
#1708
0%
#1712
1%
b11010110 +
b11010110 *
#1716
0%
#1720
1%
b11010111 +
b11010111 *
#1724
0%
#1728
1%
b11011000 +
b11011000 *
#1732
0%
#1736
1%
b11011001 +
b11011001 *
#1740
0%
#1744
1%
b11011010 +
b11011010 *
#1748
0%
#1752
1%
b11011011 +
b11011011 *
#1756
0%
#1760
1%
b11011100 +
b11011100 *
#1764
0%
#1768
1%
b11011101 +
b11011101 *
#1772
0%
#1776
1%
b11011110 +
b11011110 *
#1780
0%
#1784
1%
b11011111 +
b11011111 *
#1788
0%
#1792
1%
b11100000 +
b11100000 *
#1796
0%
#1800
1%
b11100001 +
b11100001 *
#1804
0%
#1808
1%
b11100010 +
b11100010 *
#1812
0%
#1816
1%
b11100011 +
b11100011 *
#1820
0%
#1824
1%
b11100100 +
b11100100 *
#1828
0%
#1832
1%
b11100101 +
b11100101 *
#1836
0%
#1840
1%
b11100110 +
b11100110 *
#1844
0%
#1848
1%
b11100111 +
b11100111 *
#1852
0%
#1856
1%
b11101000 +
b11101000 *
#1860
0%
#1864
1%
b11101001 +
b11101001 *
#1868
0%
#1872
1%
b11101010 +
b11101010 *
#1876
0%
#1880
1%
b11101011 +
b11101011 *
#1884
0%
#1888
1%
b11101100 +
b11101100 *
#1892
0%
#1896
1%
b11101101 +
b11101101 *
#1900
0%
#1904
1%
b11101110 +
b11101110 *
#1908
0%
#1912
1%
b11101111 +
b11101111 *
#1916
0%
#1920
1%
b11110000 +
b11110000 *
#1924
0%
#1928
1%
b11110001 +
b11110001 *
#1932
0%
#1936
1%
b11110010 +
b11110010 *
#1940
0%
#1944
1%
b11110011 +
b11110011 *
#1948
0%
#1952
1%
b11110100 +
b11110100 *
#1956
0%
#1960
1%
b11110101 +
b11110101 *
#1964
0%
#1968
1%
b11110110 +
b11110110 *
#1972
0%
#1976
1%
b11110111 +
b11110111 *
#1980
0%
#1984
1%
b11111000 +
b11111000 *
#1988
0%
#1992
1%
b11111001 +
b11111001 *
#1996
0%
#2000
1%
b11111010 +
b11111010 *
#2004
0%
#2008
1%
b11111011 +
b11111011 *
#2012
0%
#2016
1%
b11111100 +
b11111100 *
#2020
0%
#2024
1%
b11111101 +
b11111101 *
#2028
0%
#2032
1%
b11111110 +
b11111110 *
#2036
0%
#2040
1%
b11111111 +
b11111111 *
#2044
0%
#2048
1%
b100000000 +
b100000000 *
#2052
0%
#2056
1%
b100000001 +
b100000001 *
#2060
0%
#2064
1%
b100000010 +
b100000010 *
#2068
0%
#2072
1%
b100000011 +
b100000011 *
#2076
0%
#2080
1%
b100000100 +
b100000100 *
#2084
0%
#2088
1%
b100000101 +
b100000101 *
#2092
0%
#2096
1%
b100000110 +
b100000110 *
#2100
0%
#2104
1%
b100000111 +
b100000111 *
#2108
0%
#2112
1%
b100001000 +
b100001000 *
#2116
0%
#2120
1%
b100001001 +
b100001001 *
#2124
0%
#2128
1%
b100001010 +
b100001010 *
#2132
0%
#2136
1%
b100001011 +
b100001011 *
#2140
0%
#2144
1%
b100001100 +
b100001100 *
#2148
0%
#2152
1%
b100001101 +
b100001101 *
#2156
0%
#2160
1%
b100001110 +
b100001110 *
#2164
0%
#2168
1%
b100001111 +
b100001111 *
#2172
0%
#2176
1%
b100010000 +
b100010000 *
#2180
0%
#2184
1%
b100010001 +
b100010001 *
#2188
0%
#2192
1%
b100010010 +
b100010010 *
#2196
0%
#2200
1%
b100010011 +
b100010011 *
#2204
0%
#2208
1%
b100010100 +
b100010100 *
#2212
0%
#2216
1%
b100010101 +
b100010101 *
#2220
0%
#2224
1%
b100010110 +
b100010110 *
#2228
0%
#2232
1%
b100010111 +
b100010111 *
#2236
0%
#2240
1%
b100011000 +
b100011000 *
#2244
0%
#2248
1%
b100011001 +
b100011001 *
#2252
0%
#2256
1%
b100011010 +
b100011010 *
#2260
0%
#2264
1%
b100011011 +
b100011011 *
#2268
0%
#2272
1%
b100011100 +
b100011100 *
#2276
0%
#2280
1%
b100011101 +
b100011101 *
#2284
0%
#2288
1%
b100011110 +
b100011110 *
#2292
0%
#2296
1%
b100011111 +
b100011111 *
#2300
0%
#2304
1%
b100100000 +
b100100000 *
#2308
0%
#2312
1%
b100100001 +
b100100001 *
#2316
0%
#2320
1%
b100100010 +
b100100010 *
#2324
0%
#2328
1%
b100100011 +
b100100011 *
#2332
0%
#2336
1%
b100100100 +
b100100100 *
#2340
0%
#2344
1%
b100100101 +
b100100101 *
#2348
0%
#2352
1%
b100100110 +
b100100110 *
#2356
0%
#2360
1%
b100100111 +
b100100111 *
#2364
0%
#2368
1%
b100101000 +
b100101000 *
#2372
0%
#2376
1%
b100101001 +
b100101001 *
#2380
0%
#2384
1%
b100101010 +
b100101010 *
#2388
0%
#2392
1%
b100101011 +
b100101011 *
#2396
0%
#2400
1%
b100101100 +
b100101100 *
#2404
0%
#2408
1%
b100101101 +
b100101101 *
#2412
0%
#2416
1%
b100101110 +
b100101110 *
#2420
0%
#2424
1%
b100101111 +
b100101111 *
#2428
0%
#2432
1%
b100110000 +
b100110000 *
#2436
0%
#2440
1%
b100110001 +
b100110001 *
#2444
0%
#2448
1%
b100110010 +
b100110010 *
#2452
0%
#2456
1%
b100110011 +
b100110011 *
#2460
0%
#2464
1%
b100110100 +
b100110100 *
#2468
0%
#2472
1%
b100110101 +
b100110101 *
#2476
0%
#2480
1%
b100110110 +
b100110110 *
#2484
0%
#2488
1%
b100110111 +
b100110111 *
#2492
0%
#2496
1%
b100111000 +
b100111000 *
#2500
0%
#2504
1%
b100111001 +
b100111001 *
#2508
0%
#2512
1%
b100111010 +
b100111010 *
#2516
0%
#2520
1%
b100111011 +
b100111011 *
#2524
0%
#2528
1%
b100111100 +
b100111100 *
#2532
0%
#2536
1%
b100111101 +
b100111101 *
#2540
0%
#2544
1%
b100111110 +
b100111110 *
#2548
0%
#2552
1%
b100111111 +
b100111111 *
#2556
0%
#2560
1%
b101000000 +
b101000000 *
#2564
0%
#2568
1%
b101000001 +
b101000001 *
#2572
0%
#2576
1%
b101000010 +
b101000010 *
#2580
0%
#2584
1%
b101000011 +
b101000011 *
#2588
0%
#2592
1%
b101000100 +
b101000100 *
#2596
0%
#2600
1%
b101000101 +
b101000101 *
#2604
0%
#2608
1%
b101000110 +
b101000110 *
#2612
0%
#2616
1%
b101000111 +
b101000111 *
#2620
0%
#2624
1%
b101001000 +
b101001000 *
#2628
0%
#2632
1%
b101001001 +
b101001001 *
#2636
0%
#2640
1%
b101001010 +
b101001010 *
#2644
0%
#2648
1%
b101001011 +
b101001011 *
#2652
0%
#2656
1%
b101001100 +
b101001100 *
#2660
0%
#2664
1%
b101001101 +
b101001101 *
#2668
0%
#2672
1%
b101001110 +
b101001110 *
#2676
0%
#2680
1%
b101001111 +
b101001111 *
#2684
0%
#2688
1%
b101010000 +
b101010000 *
#2692
0%
#2696
1%
b101010001 +
b101010001 *
#2700
0%
#2704
1%
b101010010 +
b101010010 *
#2708
0%
#2712
1%
b101010011 +
b101010011 *
#2716
0%
#2720
1%
b101010100 +
b101010100 *
#2724
0%
#2728
1%
b101010101 +
b101010101 *
#2732
0%
#2736
1%
b101010110 +
b101010110 *
#2740
0%
#2744
1%
b101010111 +
b101010111 *
#2748
0%
#2752
1%
b101011000 +
b101011000 *
#2756
0%
#2760
1%
b101011001 +
b101011001 *
#2764
0%
#2768
1%
b101011010 +
b101011010 *
#2772
0%
#2776
1%
b101011011 +
b101011011 *
#2780
0%
#2784
1%
b101011100 +
b101011100 *
#2788
0%
#2792
1%
b101011101 +
b101011101 *
#2796
0%
#2800
1%
b101011110 +
b101011110 *
#2804
0%
#2808
1%
b101011111 +
b101011111 *
#2812
0%
#2816
1%
b101100000 +
b101100000 *
#2820
0%
#2824
1%
b101100001 +
b101100001 *
#2828
0%
#2832
1%
b101100010 +
b101100010 *
#2836
0%
#2840
1%
b101100011 +
b101100011 *
#2844
0%
#2848
1%
b101100100 +
b101100100 *
#2852
0%
#2856
1%
b101100101 +
b101100101 *
#2860
0%
#2864
1%
b101100110 +
b101100110 *
#2868
0%
#2872
1%
b101100111 +
b101100111 *
#2876
0%
#2880
1%
b101101000 +
b101101000 *
#2884
0%
#2888
1%
b101101001 +
b101101001 *
#2892
0%
#2896
1%
b101101010 +
b101101010 *
#2900
0%
#2904
1%
b101101011 +
b101101011 *
#2908
0%
#2912
1%
b101101100 +
b101101100 *
#2916
0%
#2920
1%
b101101101 +
b101101101 *
#2924
0%
#2928
1%
b101101110 +
b101101110 *
#2932
0%
#2936
1%
b101101111 +
b101101111 *
#2940
0%
#2944
1%
b101110000 +
b101110000 *
#2948
0%
#2952
1%
b101110001 +
b101110001 *
#2956
0%
#2960
1%
b101110010 +
b101110010 *
#2964
0%
#2968
1%
b101110011 +
b101110011 *
#2972
0%
#2976
1%
b101110100 +
b101110100 *
#2980
0%
#2984
1%
b101110101 +
b101110101 *
#2988
0%
#2992
1%
b101110110 +
b101110110 *
#2996
0%
#3000
1%
b101110111 +
b101110111 *
#3004
0%
#3008
1%
b101111000 +
b101111000 *
#3012
0%
#3016
1%
b101111001 +
b101111001 *
#3020
0%
#3024
1%
b101111010 +
b101111010 *
#3028
0%
#3032
1%
b101111011 +
b101111011 *
#3036
0%
#3040
1%
b101111100 +
b101111100 *
#3044
0%
#3048
1%
b101111101 +
b101111101 *
#3052
0%
#3056
1%
b101111110 +
b101111110 *
#3060
0%
#3064
1%
b101111111 +
b101111111 *
#3068
0%
#3072
1%
b110000000 +
b110000000 *
#3076
0%
#3080
1%
b110000001 +
b110000001 *
#3084
0%
#3088
1%
b110000010 +
b110000010 *
#3092
0%
#3096
1%
b110000011 +
b110000011 *
#3100
0%
#3104
1%
b110000100 +
b110000100 *
#3108
0%
#3112
1%
b110000101 +
b110000101 *
#3116
0%
#3120
1%
b110000110 +
b110000110 *
#3124
0%
#3128
1%
b110000111 +
b110000111 *
#3132
0%
#3136
1%
b110001000 +
b110001000 *
#3140
0%
#3144
1%
b110001001 +
b110001001 *
#3148
0%
#3152
1%
b110001010 +
b110001010 *
#3156
0%
#3160
1%
b110001011 +
b110001011 *
#3164
0%
#3168
1%
b110001100 +
b110001100 *
#3172
0%
#3176
1%
b110001101 +
b110001101 *
#3180
0%
#3184
1%
b110001110 +
b110001110 *
#3188
0%
#3192
1%
b110001111 +
b110001111 *
#3196
0%
#3200
1%
b110010000 +
b110010000 *
#3204
0%
#3208
1%
b110010001 +
b110010001 *
#3212
0%
#3216
1%
b110010010 +
b110010010 *
#3220
0%
#3224
1%
b110010011 +
b110010011 *
#3228
0%
#3232
1%
b110010100 +
b110010100 *
#3236
0%
#3240
1%
b110010101 +
b110010101 *
#3244
0%
#3248
1%
b110010110 +
b110010110 *
#3252
0%
#3256
1%
b110010111 +
b110010111 *
#3260
0%
#3264
1%
b110011000 +
b110011000 *
#3268
0%
#3272
1%
b110011001 +
b110011001 *
#3276
0%
#3280
1%
b110011010 +
b110011010 *
#3284
0%
#3288
1%
b110011011 +
b110011011 *
#3292
0%
#3296
1%
b110011100 +
b110011100 *
#3300
0%
#3304
1%
b110011101 +
b110011101 *
#3308
0%
#3312
1%
b110011110 +
b110011110 *
#3316
0%
#3320
1%
b110011111 +
b110011111 *
#3324
0%
#3328
1%
b110100000 +
b110100000 *
#3332
0%
#3336
1%
b110100001 +
b110100001 *
#3340
0%
#3344
1%
b110100010 +
b110100010 *
#3348
0%
#3352
1%
b110100011 +
b110100011 *
#3356
0%
#3360
1%
b110100100 +
b110100100 *
#3364
0%
#3368
1%
b110100101 +
b110100101 *
#3372
0%
#3376
1%
b110100110 +
b110100110 *
#3380
0%
#3384
1%
b110100111 +
b110100111 *
#3388
0%
#3392
1%
b110101000 +
b110101000 *
#3396
0%
#3400
1%
b110101001 +
b110101001 *
#3404
0%
#3408
1%
b110101010 +
b110101010 *
#3412
0%
#3416
1%
b110101011 +
b110101011 *
#3420
0%
#3424
1%
b110101100 +
b110101100 *
#3428
0%
#3432
1%
b110101101 +
b110101101 *
#3436
0%
#3440
1%
b110101110 +
b110101110 *
#3444
0%
#3448
1%
b110101111 +
b110101111 *
#3452
0%
#3456
1%
b110110000 +
b110110000 *
#3460
0%
#3464
1%
b110110001 +
b110110001 *
#3468
0%
#3472
1%
b110110010 +
b110110010 *
#3476
0%
#3480
1%
b110110011 +
b110110011 *
#3484
0%
#3488
1%
b110110100 +
b110110100 *
#3492
0%
#3496
1%
b110110101 +
b110110101 *
#3500
0%
#3504
1%
b110110110 +
b110110110 *
#3508
0%
#3512
1%
b110110111 +
b110110111 *
#3516
0%
#3520
1%
b110111000 +
b110111000 *
#3524
0%
#3528
1%
b110111001 +
b110111001 *
#3532
0%
#3536
1%
b110111010 +
b110111010 *
#3540
0%
#3544
1%
b110111011 +
b110111011 *
#3548
0%
#3552
1%
b110111100 +
b110111100 *
#3556
0%
#3560
1%
b110111101 +
b110111101 *
#3564
0%
#3568
1%
b110111110 +
b110111110 *
#3572
0%
#3576
1%
b110111111 +
b110111111 *
#3580
0%
#3584
1%
b111000000 +
b111000000 *
#3588
0%
#3592
1%
b111000001 +
b111000001 *
#3596
0%
#3600
1%
b111000010 +
b111000010 *
#3604
0%
#3608
1%
b111000011 +
b111000011 *
#3612
0%
#3616
1%
b111000100 +
b111000100 *
#3620
0%
#3624
1%
b111000101 +
b111000101 *
#3628
0%
#3632
1%
b111000110 +
b111000110 *
#3636
0%
#3640
1%
b111000111 +
b111000111 *
#3644
0%
#3648
1%
b111001000 +
b111001000 *
#3652
0%
#3656
1%
b111001001 +
b111001001 *
#3660
0%
#3664
1%
b111001010 +
b111001010 *
#3668
0%
#3672
1%
b111001011 +
b111001011 *
#3676
0%
#3680
1%
b111001100 +
b111001100 *
#3684
0%
#3688
1%
b111001101 +
b111001101 *
#3692
0%
#3696
1%
b111001110 +
b111001110 *
#3700
0%
#3704
1%
b111001111 +
b111001111 *
#3708
0%
#3712
1%
b111010000 +
b111010000 *
#3716
0%
#3720
1%
b111010001 +
b111010001 *
#3724
0%
#3728
1%
b111010010 +
b111010010 *
#3732
0%
#3736
1%
b111010011 +
b111010011 *
#3740
0%
#3744
1%
b111010100 +
b111010100 *
#3748
0%
#3752
1%
b111010101 +
b111010101 *
#3756
0%
#3760
1%
b111010110 +
b111010110 *
#3764
0%
#3768
1%
b111010111 +
b111010111 *
#3772
0%
#3776
1%
b111011000 +
b111011000 *
#3780
0%
#3784
1%
b111011001 +
b111011001 *
#3788
0%
#3792
1%
b111011010 +
b111011010 *
#3796
0%
#3800
1%
b111011011 +
b111011011 *
#3804
0%
#3808
1%
b111011100 +
b111011100 *
#3812
0%
#3816
1%
b111011101 +
b111011101 *
#3820
0%
#3824
1%
b111011110 +
b111011110 *
#3828
0%
#3832
1%
b111011111 +
b111011111 *
#3836
0%
#3840
1%
b111100000 +
b111100000 *
#3844
0%
#3848
1%
b111100001 +
b111100001 *
#3852
0%
#3856
1%
b111100010 +
b111100010 *
#3860
0%
#3864
1%
b111100011 +
b111100011 *
#3868
0%
#3872
1%
b111100100 +
b111100100 *
#3876
0%
#3880
1%
b111100101 +
b111100101 *
#3884
0%
#3888
1%
b111100110 +
b111100110 *
#3892
0%
#3896
1%
b111100111 +
b111100111 *
#3900
0%
#3904
1%
b111101000 +
b111101000 *
#3908
0%
#3912
1%
b111101001 +
b111101001 *
#3916
0%
#3920
1%
b111101010 +
b111101010 *
#3924
0%
#3928
1%
b111101011 +
b111101011 *
#3932
0%
#3936
1%
b111101100 +
b111101100 *
#3940
0%
#3944
1%
b111101101 +
b111101101 *
#3948
0%
#3952
1%
b111101110 +
b111101110 *
#3956
0%
#3960
1%
b111101111 +
b111101111 *
#3964
0%
#3968
1%
b111110000 +
b111110000 *
#3972
0%
#3976
1%
b111110001 +
b111110001 *
#3980
0%
#3984
1%
b111110010 +
b111110010 *
#3988
0%
#3992
1%
b111110011 +
b111110011 *
#3996
0%
#4000
1%
b111110100 +
b111110100 *
#4004
0%
#4008
1%
b111110101 +
b111110101 *
#4012
0%
#4016
1%
b111110110 +
b111110110 *
#4020
0%
#4024
1%
b111110111 +
b111110111 *
#4028
0%
#4032
1%
b111111000 +
b111111000 *
#4036
0%
#4040
1%
b111111001 +
b111111001 *
#4044
0%
#4048
1%
b111111010 +
b111111010 *
#4052
0%
#4056
1%
b111111011 +
b111111011 *
#4060
0%
#4064
1%
b111111100 +
b111111100 *
#4068
0%
#4072
1%
b111111101 +
b111111101 *
#4076
0%
#4080
1%
b111111110 +
b111111110 *
#4084
0%
#4088
1%
b111111111 +
b111111111 *
#4092
0%
#4096
1%
b1000000000 +
b1000000000 *
#4100
0%
#4104
1%
b1000000001 +
b1000000001 *
#4108
0%
#4112
1%
b1000000010 +
b1000000010 *
#4116
0%
#4120
1%
b1000000011 +
b1000000011 *
#4124
0%
#4128
1%
b1000000100 +
b1000000100 *
#4132
0%
#4136
1%
b1000000101 +
b1000000101 *
#4140
0%
#4144
1%
b1000000110 +
b1000000110 *
#4148
0%
#4152
1%
b1000000111 +
b1000000111 *
#4156
0%
#4160
1%
b1000001000 +
b1000001000 *
#4164
0%
#4168
1%
b1000001001 +
b1000001001 *
#4172
0%
#4176
1%
b1000001010 +
b1000001010 *
#4180
0%
#4184
1%
b1000001011 +
b1000001011 *
#4188
0%
#4192
1%
b1000001100 +
b1000001100 *
#4196
0%
#4200
1%
b1000001101 +
b1000001101 *
#4204
0%
#4208
1%
b1000001110 +
b1000001110 *
#4212
0%
#4216
1%
b1000001111 +
b1000001111 *
#4220
0%
#4224
1%
b1000010000 +
b1000010000 *
#4228
0%
#4232
1%
b1000010001 +
b1000010001 *
#4236
0%
#4240
1%
b1000010010 +
b1000010010 *
#4244
0%
#4248
1%
b1000010011 +
b1000010011 *
#4252
0%
#4256
1%
b1000010100 +
b1000010100 *
#4260
0%
#4264
1%
b1000010101 +
b1000010101 *
#4268
0%
#4272
1%
b1000010110 +
b1000010110 *
